%YAML 1.1
%TAG !u! tag:unity3d.com,2011:
--- !u!1045 &1
EditorBuildSettings:
  m_ObjectHideFlags: 0
  serializedVersion: 2
  m_Scenes:
  - enabled: 1
    path: Assets/Scenes/Menu.unity
    guid: 2e9d8751531905e43b35c23c838c46d2
  - enabled: 1
    path: Assets/Scenes/Credits.unity
    guid: f2d02dcc0961264489966e0febc7e3a9
  - enabled: 1
    path: Assets/Scenes/Intro.unity
    guid: ae304aed7b848fe43a3f0d98eda6fcb1
  - enabled: 1
    path: Assets/Scenes/Tutorial 1.unity
    guid: 84b6449ead5655c4aa40451a385cee48
  - enabled: 1
    path: Assets/Scenes/Simple 1.unity
    guid: b00ae1c7a668b5c4ca7742040e975236
  - enabled: 1
    path: Assets/Scenes/Simple 2.unity
    guid: c0265a873ce522f40b409c0d72880a49
  - enabled: 1
    path: Assets/Scenes/Simple 3.unity
    guid: 2057aebc5dc7e9547b1131f40411d591
  - enabled: 1
    path: Assets/Scenes/Tutorial 2.unity
    guid: 294af583d5965cd48a55575c107712af
  - enabled: 1
    path: Assets/Scenes/Tutorial 3.unity
    guid: 6b6e54e1105fa43469fe90774bd60263
  - enabled: 1
    path: Assets/Scenes/Ava 1.unity
    guid: 1088490a2e76f1948918d343b66488dc
  - enabled: 1
    path: Assets/Scenes/Sasha 1.unity
    guid: b6814d824c223b643bc1275cc5aeca81
  - enabled: 1
    path: Assets/Scenes/Sasha 2.unity
    guid: 2918b0d223582d444be2796eabc0dbc2
  - enabled: 1
    path: Assets/Scenes/Ending.unity
    guid: c2373ff9bd04d6549826f825ad00bbbb
  m_configObjects: {}
